com\events\config\ReceiverConfig.class
com\events\service\CaseAuditServiceProvider.class
com\events\model\EventData.class
com\events\service\Producer$1.class
com\events\model\BaseEvent.class
com\events\service\Receiver$2.class
com\events\util\CaseAuditConstants.class
com\events\controller\EventsRestController.class
com\events\SpringBootEventApplication.class
com\events\service\Receiver.class
com\events\filter\ErrorFilter.class
com\events\filter\EventsZuulFilter.class
com\events\config\SenderConfig.class
com\events\service\Producer.class
com\events\filter\PreFilter.class
com\events\service\Receiver$1.class
com\events\controller\ProcessRestController.class
com\events\model\CaseAuditResponseBean.class
com\events\service\CaseAuditService.class
com\events\filter\PostFilter.class
com\events\model\CheckoutEvent.class
com\events\util\EventCallback.class
com\events\controller\EventsRestController$1.class
com\events\model\CaseAuditRequestBean.class
